<?xml version="1.0" encoding="UTF-8" standalone="no"?>
<!-- Created with Inkscape (http://www.inkscape.org/) -->

<svg
   xmlns:dc="http://purl.org/dc/elements/1.1/"
   xmlns:cc="http://creativecommons.org/ns#"
   xmlns:rdf="http://www.w3.org/1999/02/22-rdf-syntax-ns#"
   xmlns:svg="http://www.w3.org/2000/svg"
   xmlns="http://www.w3.org/2000/svg"
   xmlns:xlink="http://www.w3.org/1999/xlink"
   xmlns:sodipodi="http://sodipodi.sourceforge.net/DTD/sodipodi-0.dtd"
   xmlns:inkscape="http://www.inkscape.org/namespaces/inkscape"
   width="210mm"
   height="297mm"
   viewBox="0 0 744.09448819 1052.3622047"
   id="svg2"
   version="1.1"
   inkscape:version="0.91 r13725"
   sodipodi:docname="retag-vols.svg"
   inkscape:export-filename="/home/vigmond/Projects/CARP/bbucket/carp-examples/tutorials/02_EP_tissue/04_tagging/retag-vols.png"
   inkscape:export-xdpi="90.140099"
   inkscape:export-ydpi="90.140099">
  <defs
     id="defs4">
    <inkscape:perspective
       sodipodi:type="inkscape:persp3d"
       inkscape:vp_x="-29.029512 : 402.45155 : 1"
       inkscape:vp_y="0 : 1307.7279 : 0"
       inkscape:vp_z="2542.8578 : 589.92802 : 1"
       inkscape:persp3d-origin="138.70227 : 345.98671 : 1"
       id="perspective6492" />
    <marker
       inkscape:isstock="true"
       style="overflow:visible;"
       id="marker6187"
       refX="0.0"
       refY="0.0"
       orient="auto"
       inkscape:stockid="Arrow1Lend">
      <path
         transform="scale(0.8) rotate(180) translate(12.5,0)"
         style="fill-rule:evenodd;stroke:#000000;stroke-width:1pt;stroke-opacity:1;fill:#000000;fill-opacity:1"
         d="M 0.0,0.0 L 5.0,-5.0 L -12.5,0.0 L 5.0,5.0 L 0.0,0.0 z "
         id="path6189" />
    </marker>
    <marker
       inkscape:stockid="Arrow1Lend"
       orient="auto"
       refY="0.0"
       refX="0.0"
       id="marker6153"
       style="overflow:visible;"
       inkscape:isstock="true">
      <path
         id="path6155"
         d="M 0.0,0.0 L 5.0,-5.0 L -12.5,0.0 L 5.0,5.0 L 0.0,0.0 z "
         style="fill-rule:evenodd;stroke:#000000;stroke-width:1pt;stroke-opacity:1;fill:#000000;fill-opacity:1"
         transform="scale(0.8) rotate(180) translate(12.5,0)" />
    </marker>
    <marker
       inkscape:stockid="Arrow1Lend"
       orient="auto"
       refY="0.0"
       refX="0.0"
       id="Arrow1Lend"
       style="overflow:visible;"
       inkscape:isstock="true"
       inkscape:collect="always">
      <path
         id="path5629"
         d="M 0.0,0.0 L 5.0,-5.0 L -12.5,0.0 L 5.0,5.0 L 0.0,0.0 z "
         style="fill-rule:evenodd;stroke:#000000;stroke-width:1pt;stroke-opacity:1;fill:#000000;fill-opacity:1"
         transform="scale(0.8) rotate(180) translate(12.5,0)" />
    </marker>
    <linearGradient
       inkscape:collect="always"
       id="linearGradient5612">
      <stop
         style="stop-color:#ffffff;stop-opacity:1"
         offset="0"
         id="stop5614" />
      <stop
         style="stop-color:#0193ff;stop-opacity:1"
         offset="1"
         id="stop5616" />
    </linearGradient>
    <radialGradient
       inkscape:collect="always"
       xlink:href="#linearGradient5612"
       id="radialGradient5608"
       cx="440.35269"
       cy="525.60364"
       fx="440.35269"
       fy="525.60364"
       r="146.04456"
       gradientUnits="userSpaceOnUse"
       gradientTransform="matrix(0.77214586,-0.01486891,0.01656364,0.86015403,-247.34283,17.571209)" />
  </defs>
  <sodipodi:namedview
     id="base"
     pagecolor="#ffffff"
     bordercolor="#666666"
     borderopacity="1.0"
     inkscape:pageopacity="1"
     inkscape:pageshadow="2"
     inkscape:zoom="1.8249883"
     inkscape:cx="67.765694"
     inkscape:cy="584.19323"
     inkscape:document-units="px"
     inkscape:current-layer="g6971"
     showgrid="false"
     inkscape:snap-grids="false"
     inkscape:object-paths="true"
     showguides="false"
     inkscape:window-width="2005"
     inkscape:window-height="1333"
     inkscape:window-x="80"
     inkscape:window-y="150"
     inkscape:window-maximized="0" />
  <metadata
     id="metadata7">
    <rdf:RDF>
      <cc:Work
         rdf:about="">
        <dc:format>image/svg+xml</dc:format>
        <dc:type
           rdf:resource="http://purl.org/dc/dcmitype/StillImage" />
        <dc:title />
      </cc:Work>
    </rdf:RDF>
  </metadata>
  <g
     inkscape:label="Layer 1"
     inkscape:groupmode="layer"
     id="layer1">
    <path
       cx="381.90768"
       cy="594.84314"
       rx="77.368263"
       ry="31.161283"
       id="path6141"
       style="opacity:0.58483037;fill:none;fill-opacity:1;fill-rule:evenodd;stroke:#000000;stroke-width:0.9868418;stroke-miterlimit:4;stroke-dasharray:none;stroke-opacity:1" />
    <path
       cx="381.90768"
       cy="594.84314"
       rx="77.368263"
       ry="31.161283"
       id="path6143"
       style="opacity:0.58483037;fill:none;fill-opacity:1;fill-rule:evenodd;stroke:#000000;stroke-width:0.9868418;stroke-miterlimit:4;stroke-dasharray:none;stroke-opacity:1"
       d=""
       inkscape:connector-curvature="0" />
    <path
       cx="381.90768"
       cy="594.84314"
       rx="77.368263"
       ry="31.161283"
       id="path6145"
       style="opacity:0.58483037;fill:none;fill-opacity:1;fill-rule:evenodd;stroke:#000000;stroke-width:0.9868418;stroke-miterlimit:4;stroke-dasharray:none;stroke-opacity:1"
       d=""
       inkscape:connector-curvature="0" />
    <g
       id="g6971">
      <circle
         r="93.565247"
         cy="493.69226"
         cx="126.9947"
         id="path4136"
         style="opacity:0.58483037;fill:url(#radialGradient5608);fill-opacity:1;fill-rule:evenodd;stroke:#000000;stroke-width:0.64286327;stroke-miterlimit:4;stroke-dasharray:none;stroke-opacity:1" />
      <path
         inkscape:connector-curvature="0"
         id="path5620"
         d="m 126.7629,494.50171 75.97508,50.11044"
         style="fill:none;fill-rule:evenodd;stroke:#000000;stroke-width:0.64286327px;stroke-linecap:butt;stroke-linejoin:miter;stroke-opacity:1;marker-end:url(#Arrow1Lend)"
         sodipodi:nodetypes="cc" />
      <text
         sodipodi:linespacing="125%"
         id="text6762"
         y="480.11221"
         x="110.58334"
         style="font-style:normal;font-variant:normal;font-weight:normal;font-stretch:normal;font-size:25px;line-height:125%;font-family:sans-serif;-inkscape-font-specification:'sans-serif, Normal';text-align:start;letter-spacing:0px;word-spacing:0px;writing-mode:lr-tb;text-anchor:start;fill:#000000;fill-opacity:1;stroke:none;stroke-width:1px;stroke-linecap:butt;stroke-linejoin:miter;stroke-opacity:1"
         xml:space="preserve"><tspan
           y="480.11221"
           x="110.58334"
           id="tspan6764"
           sodipodi:role="line">p0</tspan></text>
      <text
         sodipodi:linespacing="125%"
         id="text6809"
         y="536.64001"
         x="113.19445"
         style="font-style:normal;font-variant:normal;font-weight:normal;font-stretch:normal;font-size:20px;line-height:125%;font-family:sans-serif;-inkscape-font-specification:'sans-serif, Normal';text-align:start;letter-spacing:0px;word-spacing:0px;writing-mode:lr-tb;text-anchor:start;fill:#000000;fill-opacity:1;stroke:none;stroke-width:1px;stroke-linecap:butt;stroke-linejoin:miter;stroke-opacity:1"
         xml:space="preserve"><tspan
           y="536.64001"
           x="113.19445"
           id="tspan6811"
           sodipodi:role="line">radius</tspan></text>
      <circle
         r="6.9444447"
         cy="493.69226"
         cx="126.9947"
         id="path6823"
         style="opacity:0.58483037;fill:#000000;fill-opacity:1;fill-rule:evenodd;stroke:#000000;stroke-width:0.98699999;stroke-miterlimit:4;stroke-dasharray:0.98699999, 1.97399998;stroke-dashoffset:0;stroke-opacity:1" />
    </g>
    <g
       id="g6953"
       transform="translate(275.42666,4.6300722)">
      <g
         transform="matrix(0.81431415,0,0,0.81431415,14.071477,87.748634)"
         id="g6483">
        <path
           style="opacity:0.58483037;fill:none;fill-opacity:1;fill-rule:evenodd;stroke:#000000;stroke-width:0.9868418;stroke-miterlimit:4;stroke-dasharray:none;stroke-opacity:1"
           id="path6111"
           sodipodi:type="arc"
           sodipodi:cx="381.90768"
           sodipodi:cy="592.84314"
           sodipodi:rx="77.368263"
           sodipodi:ry="31.161283"
           sodipodi:start="0"
           sodipodi:end="3.1552055"
           sodipodi:open="true"
           d="m 459.27595,592.84314 a 77.368263,31.161283 0 0 1 -38.98856,27.05688 77.368263,31.161283 0 0 1 -77.6703,-0.21292 77.368263,31.161283 0 0 1 -38.0705,-27.26814" />
        <ellipse
           ry="31.161283"
           rx="77.368263"
           cy="386.84314"
           cx="381.90768"
           id="ellipse6117"
           style="opacity:0.58483037;fill:#ffffff;fill-opacity:1;fill-rule:evenodd;stroke:#000000;stroke-width:0.98699999;stroke-miterlimit:4;stroke-dasharray:none;stroke-opacity:1" />
        <path
           style="fill:none;fill-rule:evenodd;stroke:#000000;stroke-width:1px;stroke-linecap:butt;stroke-linejoin:miter;stroke-opacity:1"
           d="m 304.56549,594.02369 -0.0113,-207.78867"
           id="path6121"
           inkscape:connector-curvature="0" />
        <path
           inkscape:connector-curvature="0"
           id="path6123"
           d="m 459.24979,594.02369 -0.0113,-207.78867"
           style="fill:none;fill-rule:evenodd;stroke:#000000;stroke-width:1px;stroke-linecap:butt;stroke-linejoin:miter;stroke-opacity:1" />
        <path
           d="m 459.27595,-594.05939 a 77.368263,31.161283 0 0 1 -38.98856,27.05689 77.368263,31.161283 0 0 1 -77.6703,-0.21293 77.368263,31.161283 0 0 1 -38.0705,-27.26814"
           sodipodi:open="true"
           sodipodi:end="3.1552055"
           sodipodi:start="0"
           sodipodi:ry="31.161283"
           sodipodi:rx="77.368263"
           sodipodi:cy="-594.05939"
           sodipodi:cx="381.90768"
           sodipodi:type="arc"
           id="path6149"
           style="opacity:0.58483037;fill:none;fill-opacity:1;fill-rule:evenodd;stroke:#000000;stroke-width:0.98699999;stroke-miterlimit:4;stroke-dasharray:0.98699999, 1.97399998;stroke-dashoffset:0;stroke-opacity:1"
           transform="scale(1,-1)" />
        <path
           style="fill:none;fill-rule:evenodd;stroke:#000000;stroke-width:1px;stroke-linecap:butt;stroke-linejoin:miter;stroke-opacity:1;marker-end:url(#marker6187)"
           d="m 380.46249,593.70693 -56.07146,19.97786"
           id="path6227"
           inkscape:connector-curvature="0"
           sodipodi:nodetypes="cc" />
        <path
           inkscape:connector-curvature="0"
           id="path6241"
           d="m 380.56549,594.02369 -0.0113,-207.78867"
           style="fill:none;fill-rule:evenodd;stroke:#000000;stroke-width:1px;stroke-linecap:butt;stroke-linejoin:miter;stroke-opacity:1" />
      </g>
      <text
         sodipodi:linespacing="125%"
         id="text6770"
         y="578.11218"
         x="332.58334"
         style="font-style:normal;font-variant:normal;font-weight:normal;font-stretch:normal;font-size:25px;line-height:125%;font-family:sans-serif;-inkscape-font-specification:'sans-serif, Normal';text-align:start;letter-spacing:0px;word-spacing:0px;writing-mode:lr-tb;text-anchor:start;fill:#000000;fill-opacity:1;stroke:none;stroke-width:1px;stroke-linecap:butt;stroke-linejoin:miter;stroke-opacity:1"
         xml:space="preserve"><tspan
           y="578.11218"
           x="332.58334"
           id="tspan6772"
           sodipodi:role="line">p0</tspan></text>
      <text
         xml:space="preserve"
         style="font-style:normal;font-variant:normal;font-weight:normal;font-stretch:normal;font-size:25px;line-height:125%;font-family:sans-serif;-inkscape-font-specification:'sans-serif, Normal';text-align:start;letter-spacing:0px;word-spacing:0px;writing-mode:lr-tb;text-anchor:start;fill:#000000;fill-opacity:1;stroke:none;stroke-width:1px;stroke-linecap:butt;stroke-linejoin:miter;stroke-opacity:1"
         x="334.58334"
         y="410.11218"
         id="text6801"
         sodipodi:linespacing="125%"><tspan
           sodipodi:role="line"
           id="tspan6803"
           x="334.58334"
           y="410.11218">p1</tspan></text>
      <text
         xml:space="preserve"
         style="font-style:normal;font-variant:normal;font-weight:normal;font-stretch:normal;font-size:20px;line-height:125%;font-family:sans-serif;-inkscape-font-specification:'sans-serif, Normal';text-align:start;letter-spacing:0px;word-spacing:0px;writing-mode:lr-tb;text-anchor:start;fill:#000000;fill-opacity:1;stroke:none;stroke-width:1px;stroke-linecap:butt;stroke-linejoin:miter;stroke-opacity:1"
         x="223.27777"
         y="600.94556"
         id="text6813"
         sodipodi:linespacing="125%"><tspan
           sodipodi:role="line"
           id="tspan6815"
           x="223.27777"
           y="600.94556">radius</tspan></text>
      <circle
         style="opacity:0.58483037;fill:#000000;fill-opacity:1;fill-rule:evenodd;stroke:#000000;stroke-width:0.98699999;stroke-miterlimit:4;stroke-dasharray:0.98699999, 1.97399998;stroke-dashoffset:0;stroke-opacity:1"
         id="circle6909"
         cx="324.30023"
         cy="405.69226"
         r="6.9444447" />
      <circle
         r="6.9444447"
         cy="571.69226"
         cx="324.30023"
         id="circle6911"
         style="opacity:0.58483037;fill:#000000;fill-opacity:1;fill-rule:evenodd;stroke:#000000;stroke-width:0.98699999;stroke-miterlimit:4;stroke-dasharray:0.98699999, 1.97399998;stroke-dashoffset:0;stroke-opacity:1" />
    </g>
    <g
       id="g6936"
       transform="translate(-328.05692,-173.44158)">
      <g
         id="g7042">
        <text
           sodipodi:linespacing="125%"
           id="text6774"
           y="762.52423"
           x="568.66644"
           style="font-style:normal;font-variant:normal;font-weight:normal;font-stretch:normal;font-size:25px;line-height:125%;font-family:sans-serif;-inkscape-font-specification:'sans-serif, Normal';text-align:start;letter-spacing:0px;word-spacing:0px;writing-mode:lr-tb;text-anchor:start;fill:#000000;fill-opacity:1;stroke:none;stroke-width:1px;stroke-linecap:butt;stroke-linejoin:miter;stroke-opacity:1"
           xml:space="preserve"><tspan
             y="762.52423"
             x="568.66644"
             id="tspan6776"
             sodipodi:role="line">p0</tspan></text>
        <g
           id="g7059">
          <g
             inkscape:corner7="1.3587221 : 0.22834859 : 0.48183161 : 1"
             inkscape:corner0="2.2443414 : 0.52813309 : 0.32534968 : 1"
             inkscape:perspectiveID="#perspective6492"
             style="opacity:0.58483037;fill:#ffffff;fill-opacity:1;fill-rule:evenodd;stroke:#000000;stroke-width:0.98699999;stroke-miterlimit:4;stroke-dasharray:0.98699999, 1.97399998;stroke-dashoffset:0;stroke-opacity:1"
             id="g6734"
             sodipodi:type="inkscape:box3d">
            <path
               points="794.3352,568.28873 794.3352,706.30286 676.61277,734.12261 676.61277,628.91103 "
               d="m 676.61277,628.91103 117.72243,-60.6223 0,138.01413 -117.72243,27.81975 z"
               inkscape:box3dsidetype="11"
               style="fill:#e9e9ff;fill-rule:evenodd;stroke:none;stroke-width:1px;stroke-linecap:butt;stroke-linejoin:round;stroke-opacity:1"
               id="path6746"
               sodipodi:type="inkscape:box3dside" />
            <path
               points="580.42276,738.42938 676.61277,734.12261 676.61277,628.91103 580.42276,628.60572 "
               d="m 580.42276,628.60572 0,109.82366 96.19001,-4.30677 0,-105.21158 z"
               inkscape:box3dsidetype="6"
               style="fill:#353564;fill-rule:evenodd;stroke:none;stroke-width:1px;stroke-linecap:butt;stroke-linejoin:round;stroke-opacity:1"
               id="path6736"
               sodipodi:type="inkscape:box3dside" />
            <path
               points="673.27019,564.34839 794.3352,568.28873 676.61277,628.91103 580.42276,628.60572 "
               d="m 580.42276,628.60572 92.84743,-64.25733 121.06501,3.94034 -117.72243,60.6223 z"
               inkscape:box3dsidetype="5"
               style="fill:#4d4d9f;fill-rule:evenodd;stroke:none;stroke-width:1px;stroke-linecap:butt;stroke-linejoin:round;stroke-opacity:1"
               id="path6738"
               sodipodi:type="inkscape:box3dside" />
            <path
               points="673.27019,710.40877 794.3352,706.30286 676.61277,734.12261 580.42276,738.42938 "
               d="m 580.42276,738.42938 92.84743,-28.02061 121.06501,-4.10591 -117.72243,27.81975 z"
               inkscape:box3dsidetype="13"
               style="fill:#afafde;fill-rule:evenodd;stroke:none;stroke-width:1px;stroke-linecap:butt;stroke-linejoin:round;stroke-opacity:1"
               id="path6744"
               sodipodi:type="inkscape:box3dside" />
            <path
               points="673.27019,710.40877 794.3352,706.30286 794.3352,568.28873 673.27019,564.34839 "
               d="m 673.27019,564.34839 0,146.06038 121.06501,-4.10591 0,-138.01413 z"
               inkscape:box3dsidetype="14"
               style="fill:#d7d7ff;fill-rule:evenodd;stroke:none;stroke-width:1px;stroke-linecap:butt;stroke-linejoin:round;stroke-opacity:1"
               id="path6742"
               sodipodi:type="inkscape:box3dside" />
            <path
               points="673.27019,564.34839 673.27019,710.40877 580.42276,738.42938 580.42276,628.60572 "
               d="m 580.42276,628.60572 92.84743,-64.25733 0,146.06038 -92.84743,28.02061 z"
               inkscape:box3dsidetype="3"
               style="fill:#8686bf;fill-rule:evenodd;stroke:none;stroke-width:1px;stroke-linecap:butt;stroke-linejoin:round;stroke-opacity:1"
               id="path6740"
               sodipodi:type="inkscape:box3dside" />
          </g>
          <text
             sodipodi:linespacing="125%"
             id="text6805"
             y="576.52423"
             x="802.66644"
             style="font-style:normal;font-variant:normal;font-weight:normal;font-stretch:normal;font-size:25px;line-height:125%;font-family:sans-serif;-inkscape-font-specification:'sans-serif, Normal';text-align:start;letter-spacing:0px;word-spacing:0px;writing-mode:lr-tb;text-anchor:start;fill:#000000;fill-opacity:1;stroke:none;stroke-width:1px;stroke-linecap:butt;stroke-linejoin:miter;stroke-opacity:1"
             xml:space="preserve"><tspan
               y="576.52423"
               x="802.66644"
               id="tspan6807"
               sodipodi:role="line">p1</tspan></text>
          <circle
             r="6.9444447"
             cy="735.31061"
             cx="580.78015"
             id="circle6913"
             style="opacity:0.58483037;fill:#000000;fill-opacity:1;fill-rule:evenodd;stroke:#000000;stroke-width:0.98699999;stroke-miterlimit:4;stroke-dasharray:0.98699999, 1.97399998;stroke-dashoffset:0;stroke-opacity:1" />
          <circle
             style="opacity:0.58483037;fill:#000000;fill-opacity:1;fill-rule:evenodd;stroke:#000000;stroke-width:0.98699999;stroke-miterlimit:4;stroke-dasharray:0.98699999, 1.97399998;stroke-dashoffset:0;stroke-opacity:1"
             id="circle6934"
             cx="794.38324"
             cy="571.31061"
             r="6.9444447" />
        </g>
      </g>
    </g>
  </g>
</svg>
