          ----- ----- -------  -----  ----- | ---- ----- --------- --------- --------- |
          mn it mx it  avg it    its  ttits |   ss    ts        st      stps     stpit |
    0.000     0     0     0.0      0      0 |    1     1    0.0000    0.0000    0.0000 |
    1.000     1     1     1.0    100    100 |  100   101    0.0121    0.0001    0.0001 |
    2.000     1     1     1.0    100    200 |  100   201    0.0121    0.0001    0.0001 |
    3.000     9    12    11.6   1164   1364 |  100   301    0.0165    0.0002    0.0000 |
    4.000    11    12    11.9   1191   2555 |  100   401    0.0166    0.0002    0.0000 |
    5.000    11    12    11.8   1177   3732 |  100   501    0.0165    0.0002    0.0000 |
    6.000    11    12    11.5   1147   4879 |  100   601    0.0165    0.0002    0.0000 |
    7.000    11    12    11.7   1169   6048 |  100   701    0.0165    0.0002    0.0000 |
    8.000    11    12    11.6   1158   7206 |  100   801    0.0164    0.0002    0.0000 |
    9.000    11    12    11.6   1159   8365 |  100   901    0.0165    0.0002    0.0000 |
   10.000    11    12    11.6   1164   9529 |  100  1001    0.0165    0.0002    0.0000 |
   11.000    11    12    11.6   1165  10694 |  100  1101    0.0165    0.0002    0.0000 |
   12.000    11    12    11.6   1162  11856 |  100  1201    0.0164    0.0002    0.0000 |
   13.000    11    12    11.6   1163  13019 |  100  1301    0.0165    0.0002    0.0000 |
   14.000    11    12    11.7   1166  14185 |  100  1401    0.0165    0.0002    0.0000 |
   15.000    11    12    11.7   1168  15353 |  100  1501    0.0165    0.0002    0.0000 |
   16.000    11    12    11.7   1171  16524 |  100  1601    0.0165    0.0002    0.0000 |
   17.000    11    12    11.7   1168  17692 |  100  1701    0.0165    0.0002    0.0000 |
   18.000    11    12    11.8   1179  18871 |  100  1801    0.0166    0.0002    0.0000 |
   19.000    11    12    11.7   1174  20045 |  100  1901    0.0165    0.0002    0.0000 |
   20.000    11    12    11.7   1173  21218 |  100  2001    0.0166    0.0002    0.0000 |
   21.000    11    12    11.7   1174  22392 |  100  2101    0.0165    0.0002    0.0000 |
   22.000    11    12    11.7   1174  23566 |  100  2201    0.0166    0.0002    0.0000 |
   23.000    11    12    11.7   1167  24733 |  100  2301    0.0165    0.0002    0.0000 |
   24.000    11    12    11.6   1164  25897 |  100  2401    0.0165    0.0002    0.0000 |
   25.000    11    12    11.6   1164  27061 |  100  2501    0.0172    0.0002    0.0000 |
   26.000    11    12    11.7   1172  28233 |  100  2601    0.0173    0.0002    0.0000 |
   27.000    11    12    11.7   1174  29407 |  100  2701    0.0165    0.0002    0.0000 |
   28.000    11    12    11.7   1174  30581 |  100  2801    0.0165    0.0002    0.0000 |
   29.000    11    12    11.7   1173  31754 |  100  2901    0.0165    0.0002    0.0000 |
   30.000    11    12    11.7   1173  32927 |  100  3001    0.0165    0.0002    0.0000 |
   31.000    11    12    11.7   1173  34100 |  100  3101    0.0166    0.0002    0.0000 |
   32.000    11    12    11.7   1173  35273 |  100  3201    0.0165    0.0002    0.0000 |
   33.000    11    12    11.7   1169  36442 |  100  3301    0.0165    0.0002    0.0000 |
   34.000    11    12    11.6   1159  37601 |  100  3401    0.0165    0.0002    0.0000 |
   35.000    11    12    11.6   1164  38765 |  100  3501    0.0165    0.0002    0.0000 |
   36.000    11    12    11.8   1177  39942 |  100  3601    0.0166    0.0002    0.0000 |
   37.000    11    12    11.7   1171  41113 |  100  3701    0.0165    0.0002    0.0000 |
   38.000    11    12    11.8   1175  42288 |  100  3801    0.0166    0.0002    0.0000 |
   39.000    11    12    11.8   1176  43464 |  100  3901    0.0166    0.0002    0.0000 |
   40.000    11    12    11.6   1162  44626 |  100  4001    0.0165    0.0002    0.0000 |
   41.000    11    12    11.6   1163  45789 |  100  4101    0.0165    0.0002    0.0000 |
   42.000    11    12    11.5   1151  46940 |  100  4201    0.0164    0.0002    0.0000 |
   43.000    11    12    11.5   1151  48091 |  100  4301    0.0164    0.0002    0.0000 |
   44.000    11    12    11.6   1156  49247 |  100  4401    0.0165    0.0002    0.0000 |
   45.000    11    12    11.4   1143  50390 |  100  4501    0.0164    0.0002    0.0000 |
   46.000    11    12    11.6   1165  51555 |  100  4601    0.0165    0.0002    0.0000 |
   47.000    11    12    11.7   1170  52725 |  100  4701    0.0174    0.0002    0.0000 |
   48.000    10    12    11.0   1097  53822 |  100  4801    0.0164    0.0002    0.0000 |
   49.000     9    10     9.8    976  54798 |  100  4901    0.0157    0.0002    0.0000 |
   50.000     9     9     9.0    900  55698 |  100  5001    0.0154    0.0002    0.0000 |
   51.000     9     9     9.0    900  56598 |  100  5101    0.0154    0.0002    0.0000 |
   52.000     9     9     9.0    900  57498 |  100  5201    0.0154    0.0002    0.0000 |
   53.000     9     9     9.0    900  58398 |  100  5301    0.0155    0.0002    0.0000 |
   54.000     9     9     9.0    900  59298 |  100  5401    0.0154    0.0002    0.0000 |
   55.000     9     9     9.0    900  60198 |  100  5501    0.0154    0.0002    0.0000 |
   56.000     9     9     9.0    900  61098 |  100  5601    0.0154    0.0002    0.0000 |
   57.000     9     9     9.0    900  61998 |  100  5701    0.0154    0.0002    0.0000 |
   58.000     9     9     9.0    900  62898 |  100  5801    0.0153    0.0002    0.0000 |
   59.000     9     9     9.0    900  63798 |  100  5901    0.0154    0.0002    0.0000 |
   60.000     9     9     9.0    900  64698 |  100  6001    0.0154    0.0002    0.0000 |
   61.000     9     9     9.0    900  65598 |  100  6101    0.0154    0.0002    0.0000 |
   62.000     9     9     9.0    900  66498 |  100  6201    0.0154    0.0002    0.0000 |
   63.000     9     9     9.0    900  67398 |  100  6301    0.0154    0.0002    0.0000 |
   64.000     9     9     9.0    900  68298 |  100  6401    0.0154    0.0002    0.0000 |
   65.000     9     9     9.0    900  69198 |  100  6501    0.0155    0.0002    0.0000 |
   66.000     8     9     8.2    817  70015 |  100  6601    0.0151    0.0002    0.0000 |
   67.000     8     8     8.0    800  70815 |  100  6701    0.0150    0.0001    0.0000 |
   68.000     8     8     8.0    800  71615 |  100  6801    0.0150    0.0002    0.0000 |
   69.000     8     8     8.0    800  72415 |  100  6901    0.0150    0.0002    0.0000 |
   70.000     8     8     8.0    800  73215 |  100  7001    0.0151    0.0002    0.0000 |
   71.000     8     8     8.0    800  74015 |  100  7101    0.0150    0.0001    0.0000 |
   72.000     8     8     8.0    800  74815 |  100  7201    0.0150    0.0001    0.0000 |
   73.000     8     8     8.0    800  75615 |  100  7301    0.0150    0.0002    0.0000 |
   74.000     8     8     8.0    800  76415 |  100  7401    0.0150    0.0002    0.0000 |
   75.000     8     8     8.0    800  77215 |  100  7501    0.0150    0.0002    0.0000 |
   76.000     8     8     8.0    800  78015 |  100  7601    0.0150    0.0001    0.0000 |
   77.000     8     8     8.0    800  78815 |  100  7701    0.0150    0.0001    0.0000 |
   78.000     8     8     8.0    800  79615 |  100  7801    0.0150    0.0002    0.0000 |
   79.000     8     8     8.0    800  80415 |  100  7901    0.0150    0.0002    0.0000 |
   80.000     8     8     8.0    800  81215 |  100  8001    0.0150    0.0002    0.0000 |
   81.000     8     8     8.0    800  82015 |  100  8101    0.0150    0.0002    0.0000 |
   82.000     8     8     8.0    800  82815 |  100  8201    0.0150    0.0002    0.0000 |
   83.000     8     8     8.0    800  83615 |  100  8301    0.0150    0.0001    0.0000 |
   84.000     8     8     8.0    800  84415 |  100  8401    0.0150    0.0002    0.0000 |
   85.000     8     8     8.0    800  85215 |  100  8501    0.0150    0.0001    0.0000 |
   86.000     8     8     8.0    800  86015 |  100  8601    0.0151    0.0002    0.0000 |
   87.000     8     8     8.0    800  86815 |  100  8701    0.0152    0.0002    0.0000 |
   88.000     8     8     8.0    800  87615 |  100  8801    0.0151    0.0002    0.0000 |
   89.000     8     8     8.0    800  88415 |  100  8901    0.0150    0.0002    0.0000 |
   90.000     8     8     8.0    800  89215 |  100  9001    0.0150    0.0002    0.0000 |
   91.000     8     8     8.0    800  90015 |  100  9101    0.0153    0.0002    0.0000 |
   92.000     8     8     8.0    800  90815 |  100  9201    0.0150    0.0002    0.0000 |
   93.000     8     8     8.0    800  91615 |  100  9301    0.0151    0.0002    0.0000 |
   94.000     8     8     8.0    800  92415 |  100  9401    0.0150    0.0002    0.0000 |
   95.000     8     8     8.0    800  93215 |  100  9501    0.0150    0.0001    0.0000 |
   96.000     8     8     8.0    800  94015 |  100  9601    0.0151    0.0002    0.0000 |
   97.000     8     8     8.0    800  94815 |  100  9701    0.0151    0.0002    0.0000 |
   98.000     8     8     8.0    800  95615 |  100  9801    0.0151    0.0002    0.0000 |
   99.000     8     8     8.0    800  96415 |  100  9901    0.0150    0.0002    0.0000 |
  100.000     8     8     8.0    800  97215 |  100 10001    0.0150    0.0001    0.0000 |
